영화 ‘기생충’ 관련 네티즌 반응 분석
…
## The following object is masked from 'package:dplyr':
## 
##     combine

require(dplyr)
data_movie <- naver_movie %>%
  select(score,date,hour)
# 일자별 평균평점 데이터
data_movie1 <- data_movie %>%
  group_by(date) %>%
  summarise(average=mean(score,na.rm=T))
data_movie1

## # A tibble: 37 x 2
##    date       average
##    <fct>        <dbl>
##  1 2019.05.30    8.86
##  2 2019.05.31    8.85
##  3 2019.06.01    8.75
##  4 2019.06.02    8.38
##  5 2019.06.03    8.30
##  6 2019.06.04    8.32
##  7 2019.06.05    8.23
##  8 2019.06.06    8.22
##  9 2019.06.07    8.37
## 10 2019.06.08    8.41
## # ... with 27 more rows

# 시간대별 평균평점 데이터
data_movie2 <- data_movie %>%
  group_by(hour) %>%
  summarise(average=mean(score,na.rm=T))
data_movie2

## # A tibble: 24 x 2
##     hour average
##    <int>   <dbl>
##  1     0    8.66
##  2     1    8.63
##  3     2    8.75
##  4     3    8.53
##  5     4    8.71
##  6     5    8.07
##  7     6    8.02
##  8     7    8.26
##  9     8    8.16
## 10     9    8.53
## # ... with 14 more rows
…
# 일자별, 시간대별 평균평점 데이터
data_movie3 <- data_movie %>%
  group_by(date,hour) %>%
  summarise(average=mean(score,na.rm=T))
data_movie3

## # A tibble: 850 x 3
## # Groups:   date [37]
##    date        hour average
##    <fct>      <int>   <dbl>
##  1 2019.05.30     9    9.10
##  2 2019.05.30    10    8.60
##  3 2019.05.30    11    8.92
##  4 2019.05.30    12    8.87
##  5 2019.05.30    13    8.87
##  6 2019.05.30    14    8.75
##  7 2019.05.30    15    8.59
##  8 2019.05.30    16    8.42
##  9 2019.05.30    17    8.83
## 10 2019.05.30    18    8.88
## # ... with 840 more rows
…
